Inspect S1 sequencing and qPCR results
…
#> # A tibble: 5 × 5
#>   dna_sample_id dilution_power dna_conc qpcr_copies comments          
#>   <chr>                  <dbl>    <dbl>       <dbl> <chr>             
#> 1 F1-D0-4                    0    1.03      7275245 ""                
#> 2 F2-D2-3                    2    0         1095264 "Insufficient mat…
#> 3 M2N-D0-2                   0   54.5     230381263 ""                
#> 4 M3F-D1-2                   1    3.25     28543112 ""                
#> 5 M3F-D2-2                   2    0.564     6164659 "Marginal materia…

sam1 %>% 
  arrange(read_depth) %>%
  select(dna_sample_id, read_depth, dna_conc, qpcr_copies, comments) %>%
  print(n=30)

#> # A tibble: 94 × 5
#>    dna_sample_id read_depth dna_conc qpcr_copies comments             
#>    <chr>              <dbl>    <dbl>       <dbl> <chr>                
#>  1 M1N-D2-3           41586    0          964017 "Insufficient materi…
#>  2 F1-D2-2            48082    0               0 "Insufficient materi…
#>  3 F3-D2-1            77464    0               0 "Insufficient materi…
#>  4 F1-D2-4           161897    0          292137 "Insufficient materi…
#>  5 F1-D2-3           268021    0          230499 "Insufficient materi…
#>  6 F1-D2-1           281202    0          243013 "Insufficient materi…
#>  7 M3F-D2-1          312964    0          724533 "Insufficient materi…
#>  8 T1-D0-1           402541    0          687679 "Insufficient materi…
#>  9 F2-D2-1           556926    0               0 "Insufficient materi…
#> 10 F1-D1-4           603241    0.311     3106346 "Marginal material f…
#> 11 M2F-D0-4         1053907  223.      199563228 ""                   
#> 12 M1N-D0-4         1113787   41.6     235422296 ""                   
#> 13 F2-D2-4          1147633    0.061     1314673 "Insufficient materi…
#> 14 F2-D2-2          1452843    0.09      1495039 "Insufficient materi…
#> 15 M2N-D2-1         1719314    0.164     1596785 "Insufficient materi…
#> 16 F1-D1-2          1862742    0         1192657 "Insufficient materi…
#> 17 M1F-D2-3         2172356    0.232     2017477 "Insufficient materi…
#> 18 F3-D0-2          2638823    0.174     2812040 "Insufficient materi…
#> 19 F3-D1-2          2796358    0.249     2462811 "Insufficient materi…
#> 20 F1-D1-3          2904362    0         1753585 "Insufficient materi…
#> 21 M3N-D2-1         3117998    0.257     1901696 "Insufficient materi…
#> 22 M2N-D2-3         3212898    0.408     3107850 "Marginal material f…
#> 23 F1-D1-1          3323622    0.496     2802958 "Marginal material f…
#> 24 M2N-D0-4         3529736   50.4     267735590 ""                   
#> 25 M1F-D2-1         3721038    0.59      5203004 "Marginal material f…
#> 26 M1F-D2-4         3722293    0.3       2933430 "Insufficient materi…
#> 27 M1F-D0-1         3790770  102.      555483111 ""                   
#> 28 M1F-D2-2         3817919    0.523     4519188 "Marginal material f…
#> 29 M3N-D1-2         3908574    6.11     39374129 ""                   
#> 30 M1N-D2-4         4092656    1.17      7744146 ""                   
#> # … with 64 more rows
…
